dump.vcd
$date
    Feb  5, 2026  14:40:26
$end
$version
    TOOL:	xmsim	25.03-s001
$end
$timescale
    1 ps
$end

$scope module tb_traffic $end
$var reg       1 !    clk $end
$var reg       1 "    rst $end
$var reg       6 #    count [5:0] $end
$var reg       3 $    light_ns [2:0] $end
$var reg       3 %    light_ew [2:0] $end

$scope module uut $end
$var wire      1 &    clk  $end
$var wire      1 '    rst  $end
$var reg       6 (    count [5:0] $end
$var reg       3 )    light_ns [2:0] $end
$var reg       3 *    light_ew [2:0] $end
$var parameter 32 +    tgreen $end
$var parameter 32 ,    tyellow $end
$var parameter 32 -    tred $end
$var parameter  3 .    red $end
$var parameter  3 /    yellow $end
$var parameter  3 0    green $end
$var reg       3 1    present_state [2:0] $end
$var reg       3 2    next_state [2:0] $end
$upscope $end

$upscope $end

$enddefinitions $end
$dumpvars
b1 0
b10 /
b100 .
b10 -
b101 ,
b10100 +
0!
1"
bx #
b100 $
b100 %
0&
1'
bx (
b100 )
b100 *
bx 1
bx 2
$end
#5000
1!
1&
b0 1
b0 (
b0 #
#10000
0!
0&
#15000
1!
1&
#20000
0"
0!
0&
0'
#25000
1!
1&
b0 2
bx 1
b1 (
b1 #
#30000
0!
0&
#35000
1!
1&
b0 1
b10 (
b10 #
#40000
0!
0&
#45000
1!
1&
b1 2
b11 (
b11 #
#50000
0!
0&
#55000
1!
1&
b1 1
b0 (
b1 )
b1 $
b0 #
#60000
0!
0&
#65000
1!
1&
b1 (
b1 #
#70000
0!
0&
#75000
1!
1&
b10 (
b10 #
#80000
0!
0&
#85000
1!
1&
b11 (
b11 #
#90000
0!
0&
#95000
1!
1&
b100 (
b100 #
#100000
0!
0&
#105000
1!
1&
b101 (
b101 #
#110000
0!
0&
#115000
1!
1&
b110 (
b110 #
#120000
0!
0&
#125000
1!
1&
b111 (
b111 #
#130000
0!
0&
#135000
1!
1&
b1000 (
b1000 #
#140000
0!
0&
#145000
1!
1&
b1001 (
b1001 #
#150000
0!
0&
#155000
1!
1&
b1010 (
b1010 #
#160000
0!
0&
#165000
1!
1&
b1011 (
b1011 #
#170000
0!
0&
#175000
1!
1&
b1100 (
b1100 #
#180000
0!
0&
#185000
1!
1&
b1101 (
b1101 #
#190000
0!
0&
#195000
1!
1&
b1110 (
b1110 #
#200000
0!
0&
#205000
1!
1&
b1111 (
b1111 #
#210000
0!
0&
#215000
1!
1&
b10000 (
b10000 #
#220000
0!
0&
#225000
1!
1&
b10001 (
b10001 #
#230000
0!
0&
#235000
1!
1&
b10010 (
b10010 #
#240000
0!
0&
#245000
1!
1&
b10011 (
b10011 #
#250000
0!
0&
#255000
1!
1&
b10100 (
b10100 #
#260000
0!
0&
#265000
1!
1&
b10 2
b10101 (
b10101 #
#270000
0!
0&
#275000
1!
1&
b10 1
b0 (
b10 )
b10 $
b0 #
#280000
0!
0&
#285000
1!
1&
b1 (
b1 #
#290000
0!
0&
#295000
1!
1&
b10 (
b10 #
#300000
0!
0&
#305000
1!
1&
b11 (
b11 #
#310000
0!
0&
#315000
1!
1&
b100 (
b100 #
#320000
0!
0&
#325000
1!
1&
b101 (
b101 #
#330000
0!
0&
#335000
1!
1&
b11 2
b110 (
b110 #
#340000
0!
0&
#345000
1!
1&
b11 1
b0 (
b100 )
b1 *
b1 %
b100 $
b0 #
#350000
0!
0&
#355000
1!
1&
b1 (
b1 #
#360000
0!
0&
#365000
1!
1&
b10 (
b10 #
#370000
0!
0&
#375000
1!
1&
b11 (
b11 #
#380000
0!
0&
#385000
1!
1&
b100 (
b100 #
#390000
0!
0&
#395000
1!
1&
b101 (
b101 #
#400000
0!
0&
#405000
1!
1&
b110 (
b110 #
#410000
0!
0&
#415000
1!
1&
b111 (
b111 #
#420000
0!
0&
#425000
1!
1&
b1000 (
b1000 #
#430000
0!
0&
#435000
1!
1&
b1001 (
b1001 #
#440000
0!
0&
#445000
1!
1&
b1010 (
b1010 #
#450000
0!
0&
#455000
1!
1&
b1011 (
b1011 #
#460000
0!
0&
#465000
1!
1&
b1100 (
b1100 #
#470000
0!
0&
#475000
1!
1&
b1101 (
b1101 #
#480000
0!
0&
#485000
1!
1&
b1110 (
b1110 #
#490000
0!
0&
#495000
1!
1&
b1111 (
b1111 #
#500000
0!
0&
#505000
1!
1&
b10000 (
b10000 #
#510000
0!
0&
#515000
1!
1&
b10001 (
b10001 #
